…
senator_3b_tweets$mentions_screen_name <- gsub('"', "", senator_3b_tweets$mentions_screen_name, fixed=TRUE)

senator_3b_merge <- merge(senator_3b_tweets, twitter, by.x="mentions_screen_name", by.y="Official.Twitter")

tweets_3b <- senator_3b_merge %>%
  filter(!(mentions_screen_name == screen_name)) %>%
  group_by(screen_name, mentions_screen_name) %>%
  dplyr::summarise(Total_number_of_mentions = n()) %>%
  arrange(-Total_number_of_mentions)

tweets_3b
```

```
## # A tibble: 3,844 x 3
## # Groups:   screen_name [100]
##    screen_name     mentions_screen_name Total_number_of_mentions
##    <chr>           <chr>                                   <int>
##  1 SenThadCochran  SenatorWicker                             213
##  2 SenAngusKing    SenatorCollins                            133
##  3 SenatorHassan   SenatorShaheen                            132
##  4 SenatorWicker   SenThadCochran                            128
##  5 JeffFlake       SenJohnMcCain                             101
##  6 SenatorEnzi     SenJohnBarrasso                            98
##  7 SenatorCollins  SenAngusKing                               86
##  8 MikeCrapo       SenatorRisch                               84
##  9 SenatorMenendez CoryBooker                                 84
## 10 SenToomey       SenBobCasey                                76
## # ... with 3,834 more rows
```
…
